A,Acker (A)
BFAB,Abbaufläche (BFAB)
Arb,Arboretum (Arb)
BF,Betriebsfläche (BF)
BIOS,Biotop-Schutzfläche (BIOS)
OW,Streuobstwiese (OW)
OW_B,Streuobst(-wiese) mit Biotopschutz (OW_B)
Bpl,Bauplatz (Bpl)
WA,Gewässer (WA)
WA_B,Gewässer mit Biotoschutz (WA_B)
e. Abbfl.,Ehemalige Abbaufläche (e. Abbfl.)
ERH,Erholungsfläche (ERH)
Fbio,Feuchtbiotop (Fbio)
Fels,Felsfluren (Fels)
FOA,Dienstgehöft Forstamt (FOA)
F SK,Forstl. Sonderkultur (F SK)
Gh,Gehöft (Gh)
Gbf,Gebäudefläche (Gbf)
Hf,Hoffläche (Hf)
Ng,Nutzgarten (Ng)
Zg,Ziergarten (Zg)
Hü,Hütte (Hü)
Gpl,Grillplatz (Gpl)
Wildgehege,Wildgehege (Wildgehege)
Hei,Heide (Hei)
Halde,Anschüttung (Halde) (Halde)
Hlpl,Holzlagerplatz (Hlpl)
Hu,Hutung (Hu)
Kgr,Kiesgrube (Kgr)
Kamp,Pflanzgarten (Kamp)
Lgr,Lehmgrube (Lgr)
LiW,Liegewiese (LiW)
Ltg,Leitungstrasse (Ltg)
Moor,Moor (Moor)
Ppl,Parkplatz (Ppl)
Park,Park (Park)
Qu,Quelle (Qu)
REV,Dienstgehöft Revier (REV)
Rpl,Rastplatz (Rpl)
SpoA,Sportanlage (SpoA)
Sap,Samenplantage (Sap)
See,See (See)
S F,Sonstige Flächen (S F)
SGH,Schutzgehölz (SGH)
Sgr,Sandgrube (Sgr)
SK,Sonderkultur (SK)
Spipl,Spielplatz (Spipl)
SRK,Schmuckreisigkultur (SRK)
Stbr,Steinbruch (Stbr)
SUK,Sukzessionsfläche (SUK)
T,Teich (T)
Tgr,Tongrube (Tgr)
V,Weide (V)
 W,Wiese ( W)
Wbh,Wasserbehälter (Wbh)
Weik,Weihnachtsbaumkultur (Weik)
 WiÄ,Wildäsungsfläche ( WiÄ)
